{
    "AudioToolbox.framework": 2,
    "SystemConfiguration.framework": 3,
    "AVFoundation.framework": 3,
    "libsqlite3.dylib": 1,
    "libz.dylib": 2,
    "ImageIO.framework": 1,
    "CoreLocation.framework": 3,
    "AddressBook.framework": 2,
    "CoreText.framework": 1,
    "SafariServices.framework": 1,
    "Security.framework": 1,
    "libz.tbd": 1,
    "Social.framework": 1,
    "MessageUI.framework": 2,
    "CoreBluetooth.framework": 1,
    "CoreMotion.framework": 1,
    "Photos.framework": 1,
    "EventKit.framework": 1,
    "Contacts.framework": 1,
    "UserNotifications.framework": 1
}