{
    "prepare_queue": {
        "installed": [],
        "uninstalled": []
    },
    "config_munge": {
        "files": {
            "*-Info.plist": {
                "parents": {
                    "UIBackgroundModes": [
                        {
                            "xml": "<array><string>fetch</string></array>",
                            "count": 1
                        },
                        {
                            "xml": "<array>\n                <string>location</string>\n            </array>",
                            "count": 1
                        },
                        {
                            "xml": "<array><string>remote-notification</string></array>",
                            "count": 1
                        }
                    ],
                    "NSLocationAlwaysAndWhenInUseUsageDescription": [
                        {
                            "xml": "<string>[CHANGEME] Always use is required for constant background location-tracking</string>",
                            "count": 1
                        }
                    ],
                    "NSLocationAlwaysUsageDescription": [
                        {
                            "xml": "<string>Background location-tracking is required</string>",
                            "count": 1
                        },
                        {
                            "xml": "<string>This app requires constant access to your location in order to track your position, even when the screen is off.</string>",
                            "count": 1
                        }
                    ],
                    "NSLocationWhenInUseUsageDescription": [
                        {
                            "xml": "<string>Background location-tracking is required</string>",
                            "count": 1
                        },
                        {
                            "xml": "<string />",
                            "count": 1
                        },
                        {
                            "xml": "<string> </string>",
                            "count": 1
                        },
                        {
                            "xml": "<string>This app requires access to your location when the screen is on and the app is displayed.</string>",
                            "count": 1
                        }
                    ],
                    "NSMotionUsageDescription": [
                        {
                            "xml": "<string>Using the accelerometer increases battery-efficiency by intelligently toggling location-tracking only when the device is detected to be moving</string>",
                            "count": 1
                        },
                        {
                            "xml": "<string>This app requires motion detection access to function properly.</string>",
                            "count": 1
                        }
                    ],
                    "NSCameraUsageDescription": [
                        {
                            "xml": "<string> </string>",
                            "count": 1
                        },
                        {
                            "xml": "<string>This app requires camera access to function properly.</string>",
                            "count": 1
                        }
                    ],
                    "NSPhotoLibraryUsageDescription": [
                        {
                            "xml": "<string> </string>",
                            "count": 1
                        },
                        {
                            "xml": "<string>This app requires photo library access to function properly.</string>",
                            "count": 1
                        }
                    ],
                    "FacebookAppID": [
                        {
                            "xml": "<string>1016717698397887</string>",
                            "count": 1
                        }
                    ],
                    "FacebookDisplayName": [
                        {
                            "xml": "<string>WhoCan</string>",
                            "count": 1
                        }
                    ],
                    "CFBundleURLTypes": [
                        {
                            "xml": "<array><dict><key>CFBundleURLSchemes</key><array><string>fb1016717698397887</string></array></dict></array>",
                            "count": 1
                        },
                        {
                            "xml": "<array><dict><key>CFBundleTypeRole</key><string>Editor</string><key>CFBundleURLName</key><string>REVERSED_CLIENT_ID</string><key>CFBundleURLSchemes</key><array><string>837866329050-7a7k8m8b1v7dmuur0ae13ckpiur9c47f.apps.googleusercontent.com</string></array></dict></array>",
                            "count": 1
                        }
                    ],
                    "NSAppTransportSecurity": [
                        {
                            "xml": "<dict><key>NSExceptionDomains</key><dict><key>facebook.com</key><dict><key>NSIncludesSubdomains</key><true /><key>NSThirdPartyExceptionRequiresForwardSecrecy</key><false /></dict><key>fbcdn.net</key><dict><key>NSIncludesSubdomains</key><true /><key>NSThirdPartyExceptionRequiresForwardSecrecy</key><false /></dict><key>akamaihd.net</key><dict><key>NSIncludesSubdomains</key><true /><key>NSThirdPartyExceptionRequiresForwardSecrecy</key><false /></dict></dict></dict>",
                            "count": 1
                        }
                    ],
                    "LSApplicationQueriesSchemes": [
                        {
                            "xml": "<array><string>fbapi</string><string>fb-messenger-api</string><string>fbauth2</string><string>fbshareextension</string></array>",
                            "count": 1
                        }
                    ],
                    "NSPhotoLibraryAddUsageDescription": [
                        {
                            "xml": "<string>This app requires photo library access to function properly.</string>",
                            "count": 1
                        }
                    ],
                    "NSCalendarsUsageDescription": [
                        {
                            "xml": "<string>This app requires calendar access to function properly.</string>",
                            "count": 1
                        }
                    ],
                    "NSBluetoothPeripheralUsageDescription": [
                        {
                            "xml": "<string>This app requires bluetooth access to function properly.</string>",
                            "count": 1
                        }
                    ],
                    "NSMicrophoneUsageDescription": [
                        {
                            "xml": "<string>This app requires microphone access to function properly.</string>",
                            "count": 1
                        }
                    ],
                    "NSContactsUsageDescription": [
                        {
                            "xml": "<string>This app requires contacts access to function properly.</string>",
                            "count": 1
                        }
                    ],
                    "NSRemindersUsageDescription": [
                        {
                            "xml": "<string>This app requires reminders access to function properly.</string>",
                            "count": 1
                        }
                    ]
                }
            },
            "config.xml": {
                "parents": {
                    "/*": [
                        {
                            "xml": "<feature name=\"BackgroundFetch\"><param name=\"ios-package\" value=\"CDVBackgroundFetch\" /><param name=\"onload\" value=\"true\" /></feature>",
                            "count": 1
                        },
                        {
                            "xml": "<feature name=\"BackgroundGeolocation\"><param name=\"ios-package\" value=\"CDVBackgroundGeolocation\" /></feature>",
                            "count": 1
                        },
                        {
                            "xml": "<feature name=\"Camera\"><param name=\"ios-package\" value=\"CDVCamera\" /></feature>",
                            "count": 1
                        },
                        {
                            "xml": "<preference name=\"CameraUsesGeolocation\" value=\"false\" />",
                            "count": 1
                        },
                        {
                            "xml": "<feature name=\"DatePicker\"><param name=\"ios-package\" value=\"DatePicker\" /></feature>",
                            "count": 1
                        },
                        {
                            "xml": "<feature name=\"FacebookConnectPlugin\"><param name=\"ios-package\" value=\"FacebookConnectPlugin\" /><param name=\"onload\" value=\"true\" /></feature>",
                            "count": 1
                        },
                        {
                            "xml": "<plugin name=\"FacebookConnectPlugin\" value=\"FacebookConnectPlugin\" />",
                            "count": 1
                        },
                        {
                            "xml": "<access origin=\"https://m.facebook.com\" />",
                            "count": 1
                        },
                        {
                            "xml": "<access origin=\"https://graph.facebook.com\" />",
                            "count": 1
                        },
                        {
                            "xml": "<access origin=\"https://api.facebook.com\" />",
                            "count": 1
                        },
                        {
                            "xml": "<access origin=\"https://*.fbcdn.net\" />",
                            "count": 1
                        },
                        {
                            "xml": "<access origin=\"https://*.akamaihd.net\" />",
                            "count": 1
                        },
                        {
                            "xml": "<feature name=\"File\"><param name=\"ios-package\" value=\"CDVFile\" /><param name=\"onload\" value=\"true\" /></feature>",
                            "count": 1
                        },
                        {
                            "xml": "<feature name=\"FileTransfer\"><param name=\"ios-package\" value=\"CDVFileTransfer\" /></feature>",
                            "count": 1
                        },
                        {
                            "xml": "<feature name=\"Geolocation\"><param name=\"ios-package\" value=\"CDVLocation\" /></feature>",
                            "count": 1
                        },
                        {
                            "xml": "<feature name=\"GooglePlus\"><param name=\"ios-package\" value=\"GooglePlus\" /><param name=\"onload\" value=\"true\" /></feature>",
                            "count": 1
                        },
                        {
                            "xml": "<access origin=\"https://accounts.google.com/*\" />",
                            "count": 1
                        },
                        {
                            "xml": "<feature name=\"InAppBrowser\"><param name=\"ios-package\" value=\"CDVInAppBrowser\" /></feature>",
                            "count": 1
                        },
                        {
                            "xml": "<feature name=\"Keyboard\"><param name=\"ios-package\" onload=\"true\" value=\"CDVKeyboard\" /></feature>",
                            "count": 1
                        },
                        {
                            "xml": "<feature name=\"SocialSharing\"><param name=\"ios-package\" value=\"SocialSharing\" /><param name=\"onload\" value=\"true\" /></feature>",
                            "count": 1
                        },
                        {
                            "xml": "<feature name=\"Sms\"><param name=\"ios-package\" value=\"Sms\" /></feature>",
                            "count": 1
                        },
                        {
                            "xml": "<feature name=\"Notification\"><param name=\"ios-package\" value=\"CDVNotification\" /></feature>",
                            "count": 1
                        },
                        {
                            "xml": "<feature name=\"OneSignalPush\"><param name=\"ios-package\" value=\"OneSignalPush\" /></feature>",
                            "count": 1
                        },
                        {
                            "xml": "<feature name=\"Diagnostic\"><param name=\"ios-package\" value=\"Diagnostic\" /></feature>",
                            "count": 1
                        }
                    ]
                }
            },
            "*-Debug.plist": {
                "parents": {
                    "aps-environment": [
                        {
                            "xml": "<string>development</string>",
                            "count": 1
                        }
                    ]
                }
            },
            "*-Release.plist": {
                "parents": {
                    "aps-environment": [
                        {
                            "xml": "<string>production</string>",
                            "count": 1
                        }
                    ]
                }
            }
        }
    },
    "installed_plugins": {
        "cordova-android-play-services-gradle-release": {
            "PACKAGE_NAME": "com.tapper.whocan"
        },
        "cordova-plugin-background-fetch": {
            "PACKAGE_NAME": "com.tapper.whocan"
        },
        "cordova-plugin-cocoalumberjack": {
            "PACKAGE_NAME": "com.tapper.whocan"
        },
        "cordova-background-geolocation-lt": {
            "BACKGROUND_MODE_LOCATION": "<string>location</string>",
            "LOCATION_ALWAYS_AND_WHEN_IN_USE_USAGE_DESCRIPTION": "[CHANGEME] Always use is required for constant background location-tracking",
            "LOCATION_ALWAYS_USAGE_DESCRIPTION": "Background location-tracking is required",
            "LOCATION_WHEN_IN_USE_USAGE_DESCRIPTION": "Background location-tracking is required",
            "MOTION_USAGE_DESCRIPTION": "Using the accelerometer increases battery-efficiency by intelligently toggling location-tracking only when the device is detected to be moving",
            "PACKAGE_NAME": "com.tapper.whocan"
        },
        "cordova-plugin-compat": {
            "PACKAGE_NAME": "com.tapper.whocan"
        },
        "cordova-plugin-camera": {
            "CAMERA_USAGE_DESCRIPTION": " ",
            "PHOTOLIBRARY_USAGE_DESCRIPTION": " ",
            "PACKAGE_NAME": "com.tapper.whocan"
        },
        "cordova-plugin-datepicker": {
            "PACKAGE_NAME": "com.tapper.whocan"
        },
        "cordova-plugin-facebook4": {
            "APP_ID": "1016717698397887",
            "APP_NAME": "WhoCan",
            "PACKAGE_NAME": "com.tapper.whocan"
        },
        "cordova-plugin-file": {
            "PACKAGE_NAME": "com.tapper.whocan"
        },
        "cordova-plugin-file-transfer": {
            "PACKAGE_NAME": "com.tapper.whocan"
        },
        "cordova-plugin-geolocation": {
            "GEOLOCATION_USAGE_DESCRIPTION": " ",
            "PACKAGE_NAME": "com.tapper.whocan"
        },
        "cordova-plugin-googleplus": {
            "REVERSED_CLIENT_ID": "837866329050-7a7k8m8b1v7dmuur0ae13ckpiur9c47f.apps.googleusercontent.com",
            "PACKAGE_NAME": "com.tapper.whocan"
        },
        "cordova-plugin-inappbrowser": {
            "PACKAGE_NAME": "com.tapper.whocan"
        },
        "cordova-plugin-keyboard": {
            "PACKAGE_NAME": "com.tapper.whocan"
        },
        "cordova-plugin-whitelist": {
            "PACKAGE_NAME": "com.tapper.whocan"
        },
        "es6-promise-plugin": {
            "PACKAGE_NAME": "com.tapper.whocan"
        },
        "cordova-plugin-x-socialsharing": {
            "PACKAGE_NAME": "com.tapper.whocan"
        },
        "cordova-sms-plugin": {
            "PACKAGE_NAME": "com.tapper.whocan"
        },
        "cordova-plugin-dialogs": {
            "PACKAGE_NAME": "com.tapper.whocan"
        },
        "onesignal-cordova-plugin": {
            "PACKAGE_NAME": "com.tapper.whocan"
        },
        "cordova.plugins.diagnostic": {
            "PACKAGE_NAME": "com.tapper.whocan"
        }
    },
    "dependent_plugins": {},
    "modules": [
        {
            "id": "cordova-plugin-background-fetch.BackgroundFetch",
            "file": "plugins/cordova-plugin-background-fetch/www/BackgroundFetch.js",
            "pluginId": "cordova-plugin-background-fetch",
            "clobbers": [
                "window.BackgroundFetch"
            ]
        },
        {
            "id": "cordova-background-geolocation-lt.BackgroundGeolocation",
            "file": "plugins/cordova-background-geolocation-lt/www/BackgroundGeolocation.js",
            "pluginId": "cordova-background-geolocation-lt",
            "clobbers": [
                "window.BackgroundGeolocation"
            ]
        },
        {
            "id": "cordova-plugin-camera.Camera",
            "file": "plugins/cordova-plugin-camera/www/CameraConstants.js",
            "pluginId": "cordova-plugin-camera",
            "clobbers": [
                "Camera"
            ]
        },
        {
            "id": "cordova-plugin-camera.CameraPopoverOptions",
            "file": "plugins/cordova-plugin-camera/www/CameraPopoverOptions.js",
            "pluginId": "cordova-plugin-camera",
            "clobbers": [
                "CameraPopoverOptions"
            ]
        },
        {
            "id": "cordova-plugin-camera.camera",
            "file": "plugins/cordova-plugin-camera/www/Camera.js",
            "pluginId": "cordova-plugin-camera",
            "clobbers": [
                "navigator.camera"
            ]
        },
        {
            "id": "cordova-plugin-camera.CameraPopoverHandle",
            "file": "plugins/cordova-plugin-camera/www/ios/CameraPopoverHandle.js",
            "pluginId": "cordova-plugin-camera",
            "clobbers": [
                "CameraPopoverHandle"
            ]
        },
        {
            "id": "cordova-plugin-datepicker.DatePicker",
            "file": "plugins/cordova-plugin-datepicker/www/ios/DatePicker.js",
            "pluginId": "cordova-plugin-datepicker",
            "clobbers": [
                "datePicker"
            ]
        },
        {
            "id": "cordova-plugin-facebook4.FacebookConnectPlugin",
            "file": "plugins/cordova-plugin-facebook4/www/facebook-native.js",
            "pluginId": "cordova-plugin-facebook4",
            "clobbers": [
                "facebookConnectPlugin"
            ]
        },
        {
            "id": "cordova-plugin-file.DirectoryEntry",
            "file": "plugins/cordova-plugin-file/www/DirectoryEntry.js",
            "pluginId": "cordova-plugin-file",
            "clobbers": [
                "window.DirectoryEntry"
            ]
        },
        {
            "id": "cordova-plugin-file.DirectoryReader",
            "file": "plugins/cordova-plugin-file/www/DirectoryReader.js",
            "pluginId": "cordova-plugin-file",
            "clobbers": [
                "window.DirectoryReader"
            ]
        },
        {
            "id": "cordova-plugin-file.Entry",
            "file": "plugins/cordova-plugin-file/www/Entry.js",
            "pluginId": "cordova-plugin-file",
            "clobbers": [
                "window.Entry"
            ]
        },
        {
            "id": "cordova-plugin-file.File",
            "file": "plugins/cordova-plugin-file/www/File.js",
            "pluginId": "cordova-plugin-file",
            "clobbers": [
                "window.File"
            ]
        },
        {
            "id": "cordova-plugin-file.FileEntry",
            "file": "plugins/cordova-plugin-file/www/FileEntry.js",
            "pluginId": "cordova-plugin-file",
            "clobbers": [
                "window.FileEntry"
            ]
        },
        {
            "id": "cordova-plugin-file.FileError",
            "file": "plugins/cordova-plugin-file/www/FileError.js",
            "pluginId": "cordova-plugin-file",
            "clobbers": [
                "window.FileError"
            ]
        },
        {
            "id": "cordova-plugin-file.FileReader",
            "file": "plugins/cordova-plugin-file/www/FileReader.js",
            "pluginId": "cordova-plugin-file",
            "clobbers": [
                "window.FileReader"
            ]
        },
        {
            "id": "cordova-plugin-file.FileSystem",
            "file": "plugins/cordova-plugin-file/www/FileSystem.js",
            "pluginId": "cordova-plugin-file",
            "clobbers": [
                "window.FileSystem"
            ]
        },
        {
            "id": "cordova-plugin-file.FileUploadOptions",
            "file": "plugins/cordova-plugin-file/www/FileUploadOptions.js",
            "pluginId": "cordova-plugin-file",
            "clobbers": [
                "window.FileUploadOptions"
            ]
        },
        {
            "id": "cordova-plugin-file.FileUploadResult",
            "file": "plugins/cordova-plugin-file/www/FileUploadResult.js",
            "pluginId": "cordova-plugin-file",
            "clobbers": [
                "window.FileUploadResult"
            ]
        },
        {
            "id": "cordova-plugin-file.FileWriter",
            "file": "plugins/cordova-plugin-file/www/FileWriter.js",
            "pluginId": "cordova-plugin-file",
            "clobbers": [
                "window.FileWriter"
            ]
        },
        {
            "id": "cordova-plugin-file.Flags",
            "file": "plugins/cordova-plugin-file/www/Flags.js",
            "pluginId": "cordova-plugin-file",
            "clobbers": [
                "window.Flags"
            ]
        },
        {
            "id": "cordova-plugin-file.LocalFileSystem",
            "file": "plugins/cordova-plugin-file/www/LocalFileSystem.js",
            "pluginId": "cordova-plugin-file",
            "clobbers": [
                "window.LocalFileSystem"
            ],
            "merges": [
                "window"
            ]
        },
        {
            "id": "cordova-plugin-file.Metadata",
            "file": "plugins/cordova-plugin-file/www/Metadata.js",
            "pluginId": "cordova-plugin-file",
            "clobbers": [
                "window.Metadata"
            ]
        },
        {
            "id": "cordova-plugin-file.ProgressEvent",
            "file": "plugins/cordova-plugin-file/www/ProgressEvent.js",
            "pluginId": "cordova-plugin-file",
            "clobbers": [
                "window.ProgressEvent"
            ]
        },
        {
            "id": "cordova-plugin-file.fileSystems",
            "file": "plugins/cordova-plugin-file/www/fileSystems.js",
            "pluginId": "cordova-plugin-file"
        },
        {
            "id": "cordova-plugin-file.requestFileSystem",
            "file": "plugins/cordova-plugin-file/www/requestFileSystem.js",
            "pluginId": "cordova-plugin-file",
            "clobbers": [
                "window.requestFileSystem"
            ]
        },
        {
            "id": "cordova-plugin-file.resolveLocalFileSystemURI",
            "file": "plugins/cordova-plugin-file/www/resolveLocalFileSystemURI.js",
            "pluginId": "cordova-plugin-file",
            "merges": [
                "window"
            ]
        },
        {
            "id": "cordova-plugin-file.isChrome",
            "file": "plugins/cordova-plugin-file/www/browser/isChrome.js",
            "pluginId": "cordova-plugin-file",
            "runs": true
        },
        {
            "id": "cordova-plugin-file.iosFileSystem",
            "file": "plugins/cordova-plugin-file/www/ios/FileSystem.js",
            "pluginId": "cordova-plugin-file",
            "merges": [
                "FileSystem"
            ]
        },
        {
            "id": "cordova-plugin-file.fileSystems-roots",
            "file": "plugins/cordova-plugin-file/www/fileSystems-roots.js",
            "pluginId": "cordova-plugin-file",
            "runs": true
        },
        {
            "id": "cordova-plugin-file.fileSystemPaths",
            "file": "plugins/cordova-plugin-file/www/fileSystemPaths.js",
            "pluginId": "cordova-plugin-file",
            "merges": [
                "cordova"
            ],
            "runs": true
        },
        {
            "id": "cordova-plugin-file-transfer.FileTransferError",
            "file": "plugins/cordova-plugin-file-transfer/www/FileTransferError.js",
            "pluginId": "cordova-plugin-file-transfer",
            "clobbers": [
                "window.FileTransferError"
            ]
        },
        {
            "id": "cordova-plugin-file-transfer.FileTransfer",
            "file": "plugins/cordova-plugin-file-transfer/www/FileTransfer.js",
            "pluginId": "cordova-plugin-file-transfer",
            "clobbers": [
                "window.FileTransfer"
            ]
        },
        {
            "id": "cordova-plugin-geolocation.Coordinates",
            "file": "plugins/cordova-plugin-geolocation/www/Coordinates.js",
            "pluginId": "cordova-plugin-geolocation",
            "clobbers": [
                "Coordinates"
            ]
        },
        {
            "id": "cordova-plugin-geolocation.PositionError",
            "file": "plugins/cordova-plugin-geolocation/www/PositionError.js",
            "pluginId": "cordova-plugin-geolocation",
            "clobbers": [
                "PositionError"
            ]
        },
        {
            "id": "cordova-plugin-geolocation.Position",
            "file": "plugins/cordova-plugin-geolocation/www/Position.js",
            "pluginId": "cordova-plugin-geolocation",
            "clobbers": [
                "Position"
            ]
        },
        {
            "id": "cordova-plugin-geolocation.geolocation",
            "file": "plugins/cordova-plugin-geolocation/www/geolocation.js",
            "pluginId": "cordova-plugin-geolocation",
            "clobbers": [
                "navigator.geolocation"
            ]
        },
        {
            "id": "cordova-plugin-googleplus.GooglePlus",
            "file": "plugins/cordova-plugin-googleplus/www/GooglePlus.js",
            "pluginId": "cordova-plugin-googleplus",
            "clobbers": [
                "window.plugins.googleplus"
            ]
        },
        {
            "id": "cordova-plugin-inappbrowser.inappbrowser",
            "file": "plugins/cordova-plugin-inappbrowser/www/inappbrowser.js",
            "pluginId": "cordova-plugin-inappbrowser",
            "clobbers": [
                "cordova.InAppBrowser.open",
                "window.open"
            ]
        },
        {
            "id": "cordova-plugin-keyboard.keyboard",
            "file": "plugins/cordova-plugin-keyboard/www/keyboard.js",
            "pluginId": "cordova-plugin-keyboard",
            "clobbers": [
                "window.Keyboard"
            ]
        },
        {
            "id": "es6-promise-plugin.Promise",
            "file": "plugins/es6-promise-plugin/www/promise.js",
            "pluginId": "es6-promise-plugin",
            "runs": true
        },
        {
            "id": "cordova-plugin-x-socialsharing.SocialSharing",
            "file": "plugins/cordova-plugin-x-socialsharing/www/SocialSharing.js",
            "pluginId": "cordova-plugin-x-socialsharing",
            "clobbers": [
                "window.plugins.socialsharing"
            ]
        },
        {
            "id": "cordova-sms-plugin.Sms",
            "file": "plugins/cordova-sms-plugin/www/sms.js",
            "pluginId": "cordova-sms-plugin",
            "clobbers": [
                "window.sms"
            ]
        },
        {
            "id": "cordova-plugin-dialogs.notification",
            "file": "plugins/cordova-plugin-dialogs/www/notification.js",
            "pluginId": "cordova-plugin-dialogs",
            "merges": [
                "navigator.notification"
            ]
        },
        {
            "id": "onesignal-cordova-plugin.OneSignal",
            "file": "plugins/onesignal-cordova-plugin/www/OneSignal.js",
            "pluginId": "onesignal-cordova-plugin",
            "clobbers": [
                "OneSignal"
            ]
        },
        {
            "id": "cordova.plugins.diagnostic.Diagnostic",
            "file": "plugins/cordova.plugins.diagnostic/www/ios/diagnostic.js",
            "pluginId": "cordova.plugins.diagnostic",
            "clobbers": [
                "cordova.plugins.diagnostic"
            ]
        }
    ],
    "plugin_metadata": {
        "cordova-android-play-services-gradle-release": "0.0.2",
        "cordova-plugin-background-fetch": "5.1.1",
        "cordova-plugin-cocoalumberjack": "0.0.4",
        "cordova-background-geolocation-lt": "2.8.5",
        "cordova-plugin-compat": "1.2.0",
        "cordova-plugin-camera": "2.4.1",
        "cordova-plugin-datepicker": "0.9.3",
        "cordova-plugin-facebook4": "1.9.1",
        "cordova-plugin-file": "4.3.3",
        "cordova-plugin-file-transfer": "1.6.3",
        "cordova-plugin-geolocation": "2.4.3",
        "cordova-plugin-googleplus": "5.1.1",
        "cordova-plugin-inappbrowser": "1.7.1",
        "cordova-plugin-keyboard": "1.1.5",
        "cordova-plugin-whitelist": "1.3.2",
        "es6-promise-plugin": "4.1.0",
        "cordova-plugin-x-socialsharing": "5.2.1",
        "cordova-sms-plugin": "0.1.11",
        "cordova-plugin-dialogs": "1.3.3",
        "onesignal-cordova-plugin": "2.1.0",
        "cordova.plugins.diagnostic": "3.6.5"
    }
}